…
``` r
(q4_2019 <- rename(q4_2019
                   ,ride_id = trip_id
                   ,rideable_type = bikeid
                   ,started_at = start_time
                   ,ended_at = end_time
                   ,start_station_name = from_station_name
                   ,start_station_id = from_station_id
                   ,end_station_name = to_station_name
                   ,end_station_id = to_station_id
                   ,member_casual = usertype
                   ))
```

    ## # A tibble: 704,054 × 12
    ##     ride_id started_at          ended_at            rideable_type tripduration
    ##       <dbl> <dttm>              <dttm>                      <dbl>        <dbl>
    ##  1 25223640 2019-10-01 00:01:39 2019-10-01 00:17:20          2215          940
    ##  2 25223641 2019-10-01 00:02:16 2019-10-01 00:06:34          6328          258
    ##  3 25223642 2019-10-01 00:04:32 2019-10-01 00:18:43          3003          850
    ##  4 25223643 2019-10-01 00:04:32 2019-10-01 00:43:43          3275         2350
    ##  5 25223644 2019-10-01 00:04:34 2019-10-01 00:35:42          5294         1867
    ##  6 25223645 2019-10-01 00:04:38 2019-10-01 00:10:51          1891          373
    ##  7 25223646 2019-10-01 00:04:52 2019-10-01 00:22:45          1061         1072
    ##  8 25223647 2019-10-01 00:04:57 2019-10-01 00:29:16          1274         1458
    ##  9 25223648 2019-10-01 00:05:20 2019-10-01 00:29:18          6011         1437
    ## 10 25223649 2019-10-01 00:05:20 2019-10-01 02:23:46          2957         8306
    ## # ℹ 704,044 more rows
    ## # ℹ 7 more variables: start_station_id <dbl>, start_station_name <chr>,
    ## #   end_station_id <dbl>, end_station_name <chr>, member_casual <chr>,
    ## #   gender <chr>, birthyear <dbl>
…
